Abelardo
T1
00:05:30 - 01:05:30
T2
00:00:00 - 01:20:00
T3
00:00:00 - 03:10:00

Tiago
T1
00:00:00 - 01:10:00
T2
00:05:00 - 00:06:00
T3
00:45:00 - 02:30:00

Tiziana
T1
04:10:00 - 05:25:00
T2
03:50:00 - 05:10:00
T3
00:00:00 - 01:20:00

Nahuel
T1
00:35:00 - 00:40:00
01:15:00 - 01:20:00
01:47:00 - 02:00:00
02:01:00 - 02:07:00
02:58:00 - 03:04:00
03:45:00 - 03:50:00
04:21:00 - 04:27:00
04:30:00 - 04:56:00
12:23:00 - 12:34:00
13:35:00 - 13:40:00
T2
00:00:00 - 01:15:00
T3
00:00:00 - 01:15:00

Kiara
T1
00:53:00 - 01:17:00
01:26:00 - 01:32:00

Emanuel
T1-1
00:15:00 - 00:20:00
00:51:00 - 01:21:00

Emanuel
T1-3
01:07:00 - 01:30:00

Ayuyu
T1-1
00:45:00 - 00:50:00

Ayuyu
T1-2
00:47:00 - 01:06:00

